{
    "args": {
        "lr": {
            "_type": "choice",
            "_value": [
                0.1,
                0.01,
                0.001,
                0.0001
            ]
        },
        "momentum": 0.9,
        "params": null,
        "weight_decay": 0.0005
    },
    "func": "torch.optim.SGD"
}