{
    "args": {
        "base_lr": null,
        "cycle_momentum": null,
        "max_lr": {
            "_type": "uniform",
            "_value": [
                0.0,
                1.0
            ]
        },
        "mode": {
            "_type": "choice",
            "_value": [
                "triangular",
                "triangular2",
                "exp_range"
            ]
        },
        "optimizer": null
    },
    "cycle_amp_scale": {
        "_type": "uniform",
        "_value": [
            0.0,
            1.0
        ]
    },
    "func": "torch.optim.lr_scheduler.CyclicLR"
}